…
###  Creating a dataframe of averages

```
avg_combined_data <- combined_data %>% 
group_by(Id) %>% 
drop_na() %>% 
summarise(avg_total_active=mean(TotalActiveTime),avg_sedentary= mean(SedentaryMinutes),avg_total_minutes_asleep=mean(TotalMinutesAsleep),avg_time_in_bed=mean(TotalTimeInBed) )
avg_combined_data
```
```

###  A tibble: 24 x 5
           Id avg_total_active avg_sedentary avg_total_minute~ avg_time_in_bed
        <dbl>            <dbl>         <dbl>             <dbl>           <dbl>
 1 1503960366             291.          759.              360.            383.
 2 1644430081             263.          920.              294             346 
 3 1844505072             147.          443.              652             961 
 4 1927972279              85           977.              417             438.
 5 2026352035             257.          654.              506.            538.
 6 2320127002             242          1129                61              69 
 7 2347167796             271.          628.              447.            491.
 8 3977333714             263.          716.              294.            461.
 9 4020332650             249           842.              349.            380.
10 4319703577             259.          643.              477.            502.
###  ... with 14 more rows
```
…
